…
         max_pop = max(pop)) %>%
  ungroup() %>%
  # arrange in order of the biggest difference in life expectency
  arrange(lifeExp_diff) %>%
  # restrict to countries with a population of at least 30,000 so we can fit 
  # the plot in a reasonable space
  filter(max_pop > 30000000) %>%
  # redefine the country varaible so that it does not have the additional 
  # country levels corresponding to countries that were removed in the previous
  # step
  mutate(country = droplevels(country)) %>%
  select(country, year, continent, lifeExp, lifeExp_diff)
gapminder_life_exp_diff  

## # A tibble: 72 x 5
##    country          year continent lifeExp lifeExp_diff
##    <fct>           <int> <fct>       <dbl>        <dbl>
##  1 South Africa     1952 Africa       45.0         4.33
##  2 South Africa     2007 Africa       49.3         4.33
##  3 Congo Dem. Rep.  1952 Africa       39.1         7.32
##  4 Congo Dem. Rep.  2007 Africa       46.5         7.32
##  5 United States    1952 Americas     68.4         9.80
##  6 United States    2007 Americas     78.2         9.80
##  7 United Kingdom   1952 Europe       69.2        10.2 
##  8 United Kingdom   2007 Europe       79.4        10.2 
##  9 Nigeria          1952 Africa       36.3        10.5 
## 10 Nigeria          2007 Africa       46.9        10.5 
## # … with 62 more rows
…
