…
## See spec(...) for full column specifications.

co2 <- co2_orig %>% select(city = `City name`,
              country = Country,
              region = Region,
              population = `Population (CDP)`,
              area = `City area (others) [km2]`,
              year = `Year of emission`,
              emissions = `Total emissions (CDP) [tCO2-eq]`)
co2

## # A tibble: 343 x 7
##    city        country  region             population  area  year emissions
##    <chr>       <chr>    <chr>                   <dbl> <dbl> <dbl>     <dbl>
##  1 Aarhus      Denmark  Europe                 320000 468.   2016      1900
##  2 Abington    USA      North America           55310  40.2  2010    615224
##  3 Addis Ababa Ethiopia Africa                3384569 540    2012   3708292
##  4 Adelaide    Austral… Oceania                 23169  15.6  2013    486541
##  5 Aerøskøbing Denmark  Europe                   6200  88    2015       225
##  6 Aguascalie… Mexico   Latin America & C…         NA 385    2010        NA
##  7 Ahmedabad   India    South Asia                 NA 464.   2008        NA
##  8 Ajax, ON    Canada   North America          109600  67.1  2008    538836
##  9 Albany      USA      North America           97856  55.4  2010   1217091
## 10 Alton, IL   USA      North America           26581  40.1  2013    401079
## # … with 333 more rows
…
##  7 North Vancouver 
##  8 Peterborough, ON
##  9 Toronto         
## 10 Vancouver       
## 11 Windsor, ON     
## 12 Winnipeg        
## 
## $Chile
## # A tibble: 1 x 1
##   city    
##   <chr>   
## 1 Santiago
## 
## $China
## # A tibble: 84 x 1
##    city           
##    <chr>          
##  1 Anshan         
##  2 Anyang         
##  3 Baoding        
##  4 Baotou         
##  5 Beijing        
##  6 Benxi          
##  7 Changchun      
##  8 Changsha, Hunan
##  9 Changzhou      
## 10 Chengdou       
## # … with 74 more rows
## 
## $Colombia
…
## 
## $`United Kingdom`
## # A tibble: 7 x 1
##   city          
##   <chr>         
## 1 Birmingham    
## 2 Bournemouth   
## 3 Bristol       
## 4 Cardiff       
## 5 Greater London
## 6 Leicester     
## 7 Manchester    
## 
## $USA
## # A tibble: 64 x 1
##    city                   
##    <chr>                  
##  1 Abington               
##  2 Albany                 
##  3 Alton, IL              
##  4 Arlington, VA          
##  5 Aspen and Pitkin County
##  6 Atlanta                
##  7 Austin                 
##  8 Baltimore              
##  9 Benicia                
## 10 Blacksburg             
## # … with 54 more rows
## 
## $Venezuela
…
##  7 North Vancouver     187055
##  8 Peterborough, ON    283061
##  9 Toronto           18320966
## 10 Vancouver          2442602
## 11 Windsor, ON        2482412
## 12 Winnipeg           5257325
## 
## $Chile
## # A tibble: 1 x 2
##   city     emissions
##   <chr>        <dbl>
## 1 Santiago 31426697.
## 
## $China
## # A tibble: 84 x 2
##    city            emissions
##    <chr>               <dbl>
##  1 Anshan                 NA
##  2 Anyang                 NA
##  3 Baoding                NA
##  4 Baotou                 NA
##  5 Beijing                NA
##  6 Benxi                  NA
##  7 Changchun              NA
##  8 Changsha, Hunan        NA
##  9 Changzhou              NA
## 10 Chengdou               NA
## # … with 74 more rows
## 
## $Colombia
…
## 
## $`United Kingdom`
## # A tibble: 7 x 2
##   city           emissions
##   <chr>              <dbl>
## 1 Birmingham         5200.
## 2 Bournemouth      782650 
## 3 Bristol              NA 
## 4 Cardiff         2128000 
## 5 Greater London 40190000 
## 6 Leicester       1719600 
## 7 Manchester     14889318 
## 
## $USA
## # A tibble: 64 x 2
##    city                    emissions
##    <chr>                       <dbl>
##  1 Abington                  615224 
##  2 Albany                   1217091 
##  3 Alton, IL                 401079 
##  4 Arlington, VA            2480700 
##  5 Aspen and Pitkin County   394341 
##  6 Atlanta                  9024235 
##  7 Austin                  13700000 
##  8 Baltimore                7230497 
##  9 Benicia                   688706 
## 10 Blacksburg                347483.
## # … with 54 more rows
## 
## $Venezuela
…
##  7 North Vancouver 
##  8 Peterborough, ON
##  9 Toronto         
## 10 Vancouver       
## 11 Windsor, ON     
## 12 Winnipeg        
## 
## $Chile
## # A tibble: 1 x 1
##   city    
##   <chr>   
## 1 Santiago
## 
## $China
## # A tibble: 84 x 1
##    city           
##    <chr>          
##  1 Anshan         
##  2 Anyang         
##  3 Baoding        
##  4 Baotou         
##  5 Beijing        
##  6 Benxi          
##  7 Changchun      
##  8 Changsha, Hunan
##  9 Changzhou      
## 10 Chengdou       
## # … with 74 more rows
## 
## $Colombia
…
## 
## $`United Kingdom`
## # A tibble: 7 x 1
##   city          
##   <chr>         
## 1 Birmingham    
## 2 Bournemouth   
## 3 Bristol       
## 4 Cardiff       
## 5 Greater London
## 6 Leicester     
## 7 Manchester    
## 
## $USA
## # A tibble: 64 x 1
##    city                   
##    <chr>                  
##  1 Abington               
##  2 Albany                 
##  3 Alton, IL              
##  4 Arlington, VA          
##  5 Aspen and Pitkin County
##  6 Atlanta                
##  7 Austin                 
##  8 Baltimore              
##  9 Benicia                
## 10 Blacksburg             
## # … with 54 more rows
## 
## $Venezuela
…
