…
I often find that I want to use a dplyr function on multiple columns at once. For instance, perhaps I want to scale all of the numeric variables at once using a mutate function, or I want to provide the same summary for three of my variables.

While it’s been possible to do such tasks for a while using scoped verbs, it’s now even easier - and more consistent - using dplyr’s new across() function.

To demonstrate across(), I’m going to use Palmer’s Penguin dataset, which was originally collected and made available by Dr. Kristen Gorman and the Palmer Station, Antarctica LTER, but has recently been made popular in the R community by Allison Horst as an alternative to the over-used Iris dataset.

To start with, let’s load the penguins dataset (via the palmerpenguins package) and the tidyverse package. If you’re new to the tidyverse (primarily to dplyr and piping, %>%), I suggest taking a look at my post on the tidyverse before reading this post.

# remotes::install_github("allisonhorst/palmerpenguins")
library(palmerpenguins)
library(tidyverse)

penguins

## # A tibble: 344 x 7
##    species island bill_length_mm bill_depth_mm flipper_length_… body_mass_g
##    <fct>   <fct>           <dbl>         <dbl>            <int>       <int>
##  1 Adelie  Torge…           39.1          18.7              181        3750
##  2 Adelie  Torge…           39.5          17.4              186        3800
##  3 Adelie  Torge…           40.3          18                195        3250
##  4 Adelie  Torge…           NA            NA                 NA          NA
##  5 Adelie  Torge…           36.7          19.3              193        3450
##  6 Adelie  Torge…           39.3          20.6              190        3650
##  7 Adelie  Torge…           38.9          17.8              181        3625
##  8 Adelie  Torge…           39.2          19.6              195        4675
##  9 Adelie  Torge…           34.1          18.1              193        3475
## 10 Adelie  Torge…           42            20.2              190        4250
## # … with 334 more rows, and 1 more variable: sex <fct>
…
What if we want to replace the missing values in the numeric columns with 0 (clearly a terrible choice)? Without the across() function, we would apply an if_else() function separately to each numeric column, which will replace all NA values with 0 and leave all non-NA values as they are:

replace0 <- function(x) {
  if_else(condition = is.na(x), 
          true = 0, 
          false = as.numeric(x))
}
penguins %>%
  mutate(bill_length_mm = replace0(bill_length_mm),
         bill_depth_mm = replace0(bill_depth_mm),
         flipper_length_mm = replace0(flipper_length_mm),
         body_mass_g = replace0(body_mass_g))

## # A tibble: 344 x 7
##    species island bill_length_mm bill_depth_mm flipper_length_… body_mass_g
##    <fct>   <fct>           <dbl>         <dbl>            <dbl>       <dbl>
##  1 Adelie  Torge…           39.1          18.7              181        3750
##  2 Adelie  Torge…           39.5          17.4              186        3800
##  3 Adelie  Torge…           40.3          18                195        3250
##  4 Adelie  Torge…            0             0                  0           0
##  5 Adelie  Torge…           36.7          19.3              193        3450
##  6 Adelie  Torge…           39.3          20.6              190        3650
##  7 Adelie  Torge…           38.9          17.8              181        3625
##  8 Adelie  Torge…           39.2          19.6              195        4675
##  9 Adelie  Torge…           34.1          18.1              193        3475
## 10 Adelie  Torge…           42            20.2              190        4250
## # … with 334 more rows, and 1 more variable: sex <fct>

But fortunately, we can do this a lot more efficiently with accross().

# define a function to replace NA with 0

penguins %>%
  mutate(across(where(is.numeric), replace0))

## # A tibble: 344 x 7
##    species island bill_length_mm bill_depth_mm flipper_length_… body_mass_g
##    <fct>   <fct>           <dbl>         <dbl>            <dbl>       <dbl>
##  1 Adelie  Torge…           39.1          18.7              181        3750
##  2 Adelie  Torge…           39.5          17.4              186        3800
##  3 Adelie  Torge…           40.3          18                195        3250
##  4 Adelie  Torge…            0             0                  0           0
##  5 Adelie  Torge…           36.7          19.3              193        3450
##  6 Adelie  Torge…           39.3          20.6              190        3650
##  7 Adelie  Torge…           38.9          17.8              181        3625
##  8 Adelie  Torge…           39.2          19.6              195        4675
##  9 Adelie  Torge…           34.1          18.1              193        3475
## 10 Adelie  Torge…           42            20.2              190        4250
## # … with 334 more rows, and 1 more variable: sex <fct>

Although obviously 0 isn’t a great choice, so perhaps we can replace the missing values with the mean value of the column. This time, rather than define a new function (in place of replace0), we’ll be a bit more concise and use the tilde-dot notation to specify the function we want to apply.

penguins %>%
  mutate(across(where(is.numeric), ~if_else(is.na(.), mean(., na.rm = T), as.numeric(.))))

## # A tibble: 344 x 7
##    species island bill_length_mm bill_depth_mm flipper_length_… body_mass_g
##    <fct>   <fct>           <dbl>         <dbl>            <dbl>       <dbl>
##  1 Adelie  Torge…           39.1          18.7             181        3750 
##  2 Adelie  Torge…           39.5          17.4             186        3800 
##  3 Adelie  Torge…           40.3          18               195        3250 
##  4 Adelie  Torge…           43.9          17.2             201.       4202.
##  5 Adelie  Torge…           36.7          19.3             193        3450 
##  6 Adelie  Torge…           39.3          20.6             190        3650 
##  7 Adelie  Torge…           38.9          17.8             181        3625 
##  8 Adelie  Torge…           39.2          19.6             195        4675 
##  9 Adelie  Torge…           34.1          18.1             193        3475 
## 10 Adelie  Torge…           42            20.2             190        4250 
## # … with 334 more rows, and 1 more variable: sex <fct>

Or better yet, perhaps we can replace the missing values with the average value within the relevant species and island.

penguins %>%
  group_by(species, island) %>%
  mutate(across(where(is.numeric), 
                ~if_else(condition = is.na(.), 
                         true = mean(., na.rm = T), 
                         false = as.numeric(.)))) %>%
  ungroup()

## # A tibble: 344 x 7
##    species island bill_length_mm bill_depth_mm flipper_length_… body_mass_g
##    <fct>   <fct>           <dbl>         <dbl>            <dbl>       <dbl>
##  1 Adelie  Torge…           39.1          18.7             181        3750 
##  2 Adelie  Torge…           39.5          17.4             186        3800 
##  3 Adelie  Torge…           40.3          18               195        3250 
##  4 Adelie  Torge…           39.0          18.4             191.       3706.
##  5 Adelie  Torge…           36.7          19.3             193        3450 
##  6 Adelie  Torge…           39.3          20.6             190        3650 
##  7 Adelie  Torge…           38.9          17.8             181        3625 
##  8 Adelie  Torge…           39.2          19.6             195        4675 
##  9 Adelie  Torge…           34.1          18.1             193        3475 
## 10 Adelie  Torge…           42            20.2             190        4250 
## # … with 334 more rows, and 1 more variable: sex <fct>

A select example

When you’re using select, you don’t have to include the across() function, because the select helpers have always worked with select(). This means that you can just write

penguins %>%
  select(where(is.numeric))

## # A tibble: 344 x 4
##    bill_length_mm bill_depth_mm flipper_length_mm body_mass_g
##             <dbl>         <dbl>             <int>       <int>
##  1           39.1          18.7               181        3750
##  2           39.5          17.4               186        3800
##  3           40.3          18                 195        3250
##  4           NA            NA                  NA          NA
##  5           36.7          19.3               193        3450
##  6           39.3          20.6               190        3650
##  7           38.9          17.8               181        3625
##  8           39.2          19.6               195        4675
##  9           34.1          18.1               193        3475
## 10           42            20.2               190        4250
## # … with 334 more rows
…
