Transitioning into the tidyverse (part 1)
…
group_by: apply other dplyr functions separately within within a group defined by one or more variables

The group_by() function can be really useful if you want to apply a function independently within groups of observations (where the groups are specified by a categorical variable in your data frame). Think of group_by() as splitting your data frame into several separate data frames based on the categorical variable you specify. All functions that you apply to the grouped data frame are applied separately to each group until you specify an ungroup() function.

The code below filters the data frame to only the country-years that have life expectancy above the average life expectancy for their continent.

gapminder %>%
  group_by(continent) %>%
  filter(lifeExp > mean(lifeExp)) %>%
  ungroup() 

## # A tibble: 873 x 7
##    country  year      pop continent lifeExp gdpPercap           gdp
##    <fct>   <int>    <dbl> <fct>       <dbl>     <dbl>         <dbl>
##  1 Albania  1987  3075321 Europe       72       3739.  11498418358.
##  2 Albania  1997  3428038 Europe       73.0     3193.  10945912519.
##  3 Albania  2002  3508512 Europe       75.7     4604.  16153932130.
##  4 Albania  2007  3600523 Europe       76.4     5937.  21376411360.
##  5 Algeria  1967 12760499 Africa       51.4     3247.  41433235247.
##  6 Algeria  1972 14760787 Africa       54.5     4183.  61739408943.
##  7 Algeria  1977 17152804 Africa       58.0     4910.  84227416174.
##  8 Algeria  1982 20033753 Africa       61.4     5745. 115097120653.
##  9 Algeria  1987 23254956 Africa       65.8     5681. 132119742845.
## 10 Algeria  1992 26298373 Africa       67.7     5023. 132102425043.
## # … with 863 more rows
…
Instead, start by also grouping by continent when you calculate the average life expectency by year.

gapminder %>%
  group_by(continent, year) %>%
  summarise(avg_lifeExp = mean(lifeExp))

## # A tibble: 60 x 3
## # Groups:   continent [5]
##    continent  year avg_lifeExp
##    <fct>     <int>       <dbl>
##  1 Africa     1952        39.1
##  2 Africa     1957        41.3
##  3 Africa     1962        43.3
##  4 Africa     1967        45.3
##  5 Africa     1972        47.5
##  6 Africa     1977        49.6
##  7 Africa     1982        51.6
##  8 Africa     1987        53.3
##  9 Africa     1992        53.6
## 10 Africa     1997        53.6
## # … with 50 more rows
…
