Tidymodels: tidy machine learning in R
…
If you want to create a pre-processed data, you can first prep() the recipe for a specific dataset and juice() the prepped recipe to extract the pre-processed data. It turns out that extracting the pre-processed data isn’t actually necessary for the pipeline (but sometimes it’s useful anyway), since this will be done under the hood when the model is fit.

diabetes_train_preprocessed <- diabetes_recipe %>%
  # apply the recipe to the training data
  prep(diabetes_train) %>%
  # extract the pre-processed training dataset
  juice()
diabetes_train_preprocessed

## # A tibble: 576 x 9
##    pregnant glucose pressure triceps insulin   mass pedigree     age diabetes
##       <dbl>   <dbl>    <dbl>   <dbl>   <dbl>  <dbl>    <dbl>   <dbl> <fct>   
##  1  -0.855  -1.21    -0.577   0.0118 -0.683  -0.851   -0.355 -0.214  neg     
##  2   1.22    1.98    -0.744   0.334   1.21   -1.34     0.670 -0.130  pos     
##  3   0.328  -0.200    0.0916 -0.250  -0.312  -0.998   -0.834 -0.298  neg     
##  4   1.81   -0.233   -0.176   0.656   0.338   0.426   -1.05  -0.382  neg     
##  5  -0.559   2.44    -0.243   1.62    3.06   -0.279   -0.971  1.64   pos     
##  6   1.22    0.0934   1.93   -0.189   1.45    0.197   -0.735  1.72   pos     
##  7   0.0323 -0.396    1.60    0.293  -0.0347  0.764   -0.866 -0.298  neg     
##  8   1.81    1.50     0.0916  1.28    1.39    0.823    0.239  0.0384 pos     
##  9   1.81    0.550    0.593  -0.0888  0.785  -0.778    3.13   1.97   neg     
## 10  -0.855   2.18    -1.08   -0.592   5.49   -0.337   -0.205  2.14   pos     
## # … with 566 more rows
…
## # A tibble: 2 x 3
##   .metric  .estimator .estimate
##   <chr>    <chr>          <dbl>
## 1 accuracy binary         0.740
## 2 roc_auc  binary         0.820

Overall the performance is very good, with an accuracy of 0.74 and an AUC of 0.82.

You can also extract the test set predictions themselves using the collect_predictions() function. Note that there are 192 rows in the predictions object below which matches the number of test set observations (just to give you some evidence that these are based on the test set rather than the training set).

# generate predictions from the test set
test_predictions <- rf_fit %>% collect_predictions()
test_predictions

## # A tibble: 192 x 6
##    id               .pred_neg .pred_pos  .row .pred_class diabetes
##    <chr>                <dbl>     <dbl> <int> <fct>       <fct>   
##  1 train/test split    0.434    0.566       1 pos         pos     
##  2 train/test split    0.996    0.00389     4 neg         neg     
##  3 train/test split    0.283    0.717       5 pos         pos     
##  4 train/test split    0.950    0.0503      7 neg         pos     
##  5 train/test split    0.702    0.298      18 neg         pos     
##  6 train/test split    0.580    0.420      21 neg         neg     
##  7 train/test split    0.0333   0.967      23 pos         pos     
##  8 train/test split    0.661    0.339      30 neg         neg     
##  9 train/test split    0.185    0.815      32 pos         pos     
## 10 train/test split    0.983    0.0173     34 neg         neg     
## # … with 182 more rows
…
If you’re familiar with purrr, you could use purrr functions to extract the predictions column using pull(). The following code does almost the same thing as collect_predictions(). You could similarly have done this with the .metrics column.

test_predictions <- rf_fit %>% pull(.predictions)
test_predictions

## [[1]]
## # A tibble: 192 x 5
##    .pred_neg .pred_pos  .row .pred_class diabetes
##        <dbl>     <dbl> <int> <fct>       <fct>   
##  1    0.434    0.566       1 pos         pos     
##  2    0.996    0.00389     4 neg         neg     
##  3    0.283    0.717       5 pos         pos     
##  4    0.950    0.0503      7 neg         pos     
##  5    0.702    0.298      18 neg         pos     
##  6    0.580    0.420      21 neg         neg     
##  7    0.0333   0.967      23 pos         pos     
##  8    0.661    0.339      30 neg         neg     
##  9    0.185    0.815      32 pos         pos     
## 10    0.983    0.0173     34 neg         neg     
## # … with 182 more rows
…
