A guide to transitioning into the tidyverse (part 2)
…
group_by: apply other dplyr functions separately within within a group defined by one or more variables

gapminder %>% 
  group_by(continent) %>%
  arrange(lifeExp)

## # A tibble: 1,704 x 6
## # Groups:   continent [5]
##    country       year     pop continent lifeExp gdpPercap
##    <fct>        <int>   <dbl> <fct>       <dbl>     <dbl>
##  1 Rwanda        1992 7290203 Africa       23.6      737.
##  2 Afghanistan   1952 8425333 Asia         28.8      779.
##  3 Gambia        1952  284320 Africa       30        485.
##  4 Angola        1952 4232095 Africa       30.0     3521.
##  5 Sierra Leone  1952 2143249 Africa       30.3      880.
##  6 Afghanistan   1957 9240934 Asia         30.3      821.
##  7 Cambodia      1977 6978607 Asia         31.2      525.
##  8 Mozambique    1952 6446316 Africa       31.3      469.
##  9 Sierra Leone  1957 2295678 Africa       31.6     1004.
## 10 Burkina Faso  1952 4469979 Africa       32.0      543.
## # … with 1,694 more rows
…
